name,seq_E-value,seq_score,dom_E-value,dom_score
C7GLY4_Hxt5p_sugar_transporter,4.7e-27,88.5,1e-13,45.8
P38695_Saccharomyces_Probable,4.7e-27,88.5,1e-13,45.8
A0A0L8RIA1_Saccharomyces_Uncharacterized,6.3e-26,84.8,2.8e-13,44.4
G0VJ20_Naumovozyma_Uncharacterized,1.4e-25,83.7,1.2e-12,42.4
P32467_Saccharomyces_Low-affinity,1.8e-25,83.4,2.8e-13,44.4
A0A0L8VPC5_Saccharomyces_HXT4p,1.8e-25,83.4,2.8e-13,44.4
J6EEH2_Saccharomyces_HXT4-like,3e-25,82.7,2.8e-13,44.4
C8Z5Q3_Hxt7p_sugar_transporter,6.4e-25,81.6,8.8e-13,42.8
P39003_Saccharomyces_High-affinity,6.6e-25,81.6,8.8e-13,42.8
P39004_Saccharomyces_High-affinity,6.6e-25,81.6,8.8e-13,42.8
H0GVT9_Saccharomyces_Hxt4p,1.1e-24,80.9,1.6e-12,41.9
J8PXZ4_Saccharomyces_Hxt3p,1.2e-24,80.8,3.2e-12,40.9
P32466_Saccharomyces_Low-affinity,1.8e-24,80.2,3.2e-12,40.9
A0A0L8RI54_Saccharomyces_Uncharacterized,3.1e-24,79.4,9e-13,42.7
G8ZV27_Torulaspora_Uncharacterized,6.1e-24,78.5,9.5e-13,42.7
C5DHA7_Lachancea_KLTH0E02750p,8.3e-24,78.1,6e-12,40.1
G8BX59_Tetrapisispora_Uncharacterized,9.4e-24,77.9,1.5e-11,38.8
G0W7S4_Naumovozyma_Uncharacterized,9.8e-24,77.8,1.4e-11,38.9
H0GHE3_Saccharomyces_Hxt1p,1.3e-23,77.5,8.9e-13,42.7
E7KDE9_Hxt1p_sugar_transporter,1.3e-23,77.5,8.9e-13,42.7
P32465_Saccharomyces_Low-affinity,1.3e-23,77.5,8.9e-13,42.7
H0GEG9_Saccharomyces_Hxt3p,1.4e-23,77.3,3.1e-12,41.0
Q755M1_Ashbya_AFL207Cp,1.5e-23,77.2,1.4e-12,42.1
A0A0C7N2V6_Lachancea_LALA0S05e03202g1_1,1.8e-23,76.9,1.6e-11,38.8
Q6FY15_Candida_Uncharacterized,1.9e-23,76.9,1.5e-11,38.8
Q2MDH1_Candida_Glucose/xylose,2.7e-23,76.4,6.7e-12,39.9
P54862_Saccharomyces_Hexose,3e-23,76.3,1.4e-12,42.1
A0A0L0NU38_Glucose_xylose_facilitator,3.2e-23,76.2,8.3e-12,39.6
A7TS07_Vanderwaltozyma_Uncharacterized,4.7e-23,75.6,2e-11,38.4
A3M0N4_XUT6,5e-23,75.5,2.9e-13,44.3
P40885_Saccharomyces_Hexose,5.9e-23,75.3,1.4e-12,42.1
Cs3894_Candida_sugar,7.1e-23,75.1,9.3e-13,42.7
G0W7S5_Naumovozyma_Uncharacterized,1.5e-22,74.1,7.7e-12,39.7
G0VJ21_Naumovozyma_Uncharacterized,1.9e-22,73.7,2.9e-11,37.9
J8Q1C7_Saccharomyces_Hxt1p,2.7e-22,73.2,6.8e-12,39.9
J9Q8Z9_Xylose_transporter,2.8e-22,73.2,2.1e-11,38.4
A0A202G714_Putative_galactose_transporter,2.8e-22,73.1,1.1e-10,36.1
Gxf1p_xylose_transporter,4.4e-22,72.5,7.6e-11,36.6
Cs4130_Candida_sugar,1e-21,71.4,4.9e-11,37.2
J8Q2M4_Saccharomyces_Hxt10p,1.1e-21,71.3,8.8e-12,39.6
J6ECW9_Saccharomyces_HXT10-like,1.5e-21,70.8,9e-12,39.5
P43581_Saccharomyces_Hexose,1.9e-21,70.5,9.6e-12,39.4
P23585_Saccharomyces_High-affinity,2.3e-21,70.2,1.6e-11,38.7
A0A0L8VK87_Saccharomyces_HXT2p,2.3e-21,70.2,1.6e-11,38.7
P18631_Kluyveromyces_Low-affinity,2.6e-21,70.1,3.1e-11,37.8
Q755L9_Ashbya_AFL205Cp,2.9e-21,69.9,1.1e-10,36.0
H0GK49_Saccharomyces_Gal2p,4.3e-21,69.4,2.7e-11,38.0
P40886_Saccharomyces_Hexose,4.4e-21,69.3,8.7e-12,39.6
C4B4V9_Corynebacterium_L-arabinose,5.7e-21,69.0,9.8e-11,36.2
O94155_Scheffersomyces_sugar,6.6e-21,68.8,9.8e-12,39.4
A0A0L8VLH6_Saccharomyces_GAL2p,8.8e-21,68.4,3.1e-11,37.8
P13181_Saccharomyces_Galactose,8.8e-21,68.4,3.1e-11,37.8
Q755L8_Ashbya_AFL204Cp,1.6e-20,67.5,9e-11,36.3
A0A0D1E6U7_Ustilago_Chromosome,2e-20,67.2,4.1e-10,34.2
Q6C152_Yarrowia_YALI0F19184p,3.9e-20,66.3,1.4e-11,38.9
Q2MEV7_Candida_Glucose/xylose:,4e-20,66.2,7.1e-10,33.5
Q0UJL6_Phaeosphaeria_Uncharacterized,9.9e-20,65.0,3.4e-10,34.5
A7EH06_Sclerotinia_Uncharacterized,1.1e-19,64.9,1.3e-10,35.9
G8ZUG9_Torulaspora_Uncharacterized,1.5e-19,64.4,8.9e-10,33.1
G8C1Z2_Tetrapisispora_Uncharacterized,6e-19,62.5,2.5e-10,34.9
J5RE25_Saccharomyces_GAL2-like,8.5e-19,62.0,2.2e-10,35.1
P0AGF4_Escherichia_D-xylose-proton,1.4e-18,61.3,3.5e-08,28.0
O59932_Schizosaccharomyces_High-affinity,1.5e-18,61.2,6.9e-11,36.7
O74849_Schizosaccharomyces_High-affinity,3.1e-18,60.2,1.3e-09,32.6
S9X9N4_Schizosaccharomyces_Hexose,3.8e-18,59.9,6.2e-09,30.4
A3GHU5_XUT3,4.2e-18,59.8,3e-11,37.8
A7EBQ1_Sclerotinia_Uncharacterized,4.2e-18,59.8,1.1e-10,36.1
O74969_Schizosaccharomyces_High-affinity,4.4e-18,59.7,1.4e-09,32.5
Q5AVL3_Emericella_Uncharacterized,4.8e-18,59.6,9.9e-10,33.0
E3L8D0_Puccinia_Uncharacterized,6.9e-18,59.1,1.2e-08,29.6
Q64L87_Debaryomyces_xylose,1.2e-17,58.3,4.2e-11,37.4
B6K4P4_Schizosaccharomyces_Hexose,1.2e-17,58.3,6e-09,30.5
S9PVX2_Schizosaccharomyces_Hexose,1.3e-17,58.3,1.1e-08,29.7
Q92339_Schizosaccharomyces_High-affinity,1.6e-17,57.9,3.7e-11,37.6
Q0US61_Phaeosphaeria_Uncharacterized,1.7e-17,57.9,5e-09,30.7
E3JZ62_Puccinia_Uncharacterized,1.7e-17,57.8,6e-10,33.7
G0RW02_Maltose_permease,1.7e-17,57.8,1.1e-10,36.0
Q6C4W0_Yarrowia_YALI0E23287p,1.8e-17,57.8,1.1e-08,29.7
A7EMS1_Sclerotinia_Uncharacterized,1.8e-17,57.8,8.8e-09,30.0
E3KXI6_Puccinia_Uncharacterized,2e-17,57.6,1.5e-08,29.2
P78831_Schizosaccharomyces_High-affinity,2e-17,57.6,3.2e-09,31.4
P53631_Saccharomyces_Hexose,3.9e-17,56.7,1.4e-09,32.5
Q6CG30_Yarrowia_YALI0B01342p,3.9e-17,56.7,9e-08,26.7
A0A0D1E0D2_Ustilago_Putative,4.1e-17,56.6,1.5e-08,29.2
A0A0L8VSS8_Saccharomyces_HXT13p,4.1e-17,56.6,1.4e-09,32.5
P39924_Saccharomyces_Hexose,4.1e-17,56.6,1.4e-09,32.5
A0A0D1CSK3_Ustilago_Putative,4.5e-17,56.5,4.4e-09,30.9
Q0UWC1_Phaeosphaeria_Uncharacterized,4.6e-17,56.5,1.7e-08,29.1
Q83EH4_Coxiella_D-xylose-proton,4.8e-17,56.4,2.2e-08,28.7
O52733_Lactobacillus_,4.9e-17,56.4,4.8e-09,30.8
Q1K4S3_Neurospora_Hexose,5.7e-17,56.2,9.1e-08,26.7
Q5B5N2_Emericella_MFS,6.5e-17,56.0,4.6e-10,34.1
A0A0D1DTL9_Ustilago_Chromosome,1e-16,55.3,1.5e-08,29.2
Q9P3U7_Schizosaccharomyces_Probable,1.1e-16,55.3,1.4e-08,29.3
Q6CD11_Yarrowia_YALI0C04730p,1.3e-16,55.0,7.5e-10,33.4
G0VKG3_Naumovozyma_Uncharacterized,1.3e-16,55.0,9.7e-09,29.8
P54854_Saccharomyces_Hexose,1.4e-16,54.9,7.6e-09,30.2
P47185_Saccharomyces_Hexose,1.5e-16,54.9,7.6e-09,30.2
Q5KM76_Cryptococcus_Glucose,1.8e-16,54.5,1e-08,29.7
Q7S496_Neurospora_High,2e-16,54.4,1.3e-10,35.8
Xytlp_xylose_transporter,2e-16,54.4,1.4e-09,32.5
Q5K7G0_Cryptococcus_Receptor,2.1e-16,54.3,3.6e-09,31.2
A7ECQ3_Sclerotinia_Uncharacterized,2.9e-16,53.9,4e-09,31.1
A7EJG3_Sclerotinia_Uncharacterized,3.2e-16,53.7,3.2e-08,28.1
Q7S5X9_Neurospora_High,4.1e-16,53.4,1.7e-07,25.8
Q8TFG1_Schizosaccharomyces_Probable,4.3e-16,53.4,7.5e-08,27.0
Q5K8W0_Cryptococcus_Monosaccharide,4.5e-16,53.3,3.6e-08,28.0
A7EM55_Sclerotinia_Uncharacterized,4.6e-16,53.3,2.3e-08,28.6
Q5B330_Emericella_MFS,4.7e-16,53.2,2.7e-08,28.4
A7F511_Sclerotinia_Proliferating,4.8e-16,53.2,7.8e-08,26.9
A7F804_Sclerotinia_Uncharacterized,5.4e-16,53.0,3.3e-08,28.1
G0W6D0_Naumovozyma_Uncharacterized,5.9e-16,52.9,1.2e-07,26.3
Q6CAP1_Yarrowia_YALI0D01111p,5.9e-16,52.9,2.2e-08,28.7
A7F2J5_Sclerotinia_Uncharacterized,6.6e-16,52.8,4.4e-09,30.9
P96710_Bacillus_L-arabinose:proton,6.8e-16,52.7,5.5e-08,27.4
Q5BCD3_Emericella_Uncharacterized,7.1e-16,52.7,1.9e-07,25.7
Q0UVW0_Phaeosphaeria_Uncharacterized,7.3e-16,52.6,2e-08,28.8
Q5B5A3_Emericella_Uncharacterized,7.7e-16,52.5,3.9e-07,24.7
Q0V4D6_Phaeosphaeria_Uncharacterized,8.9e-16,52.3,2.5e-10,34.9
Q7RWH1_Neurospora_Monosaccharide,9e-16,52.3,2.7e-08,28.4
Q7S5F0_Neurospora_Quinate,9.2e-16,52.3,5.5e-09,30.6
Q0U026_Phaeosphaeria_Uncharacterized,9.8e-16,52.2,1.9e-07,25.7
Q6CCJ1_Yarrowia_YALI0C08943p,1e-15,52.2,1.8e-07,25.7
Q92253_Neurospora_Probable,1.1e-15,52.1,4.3e-08,27.7
S9QZV1_Schizosaccharomyces_Hexose,1.3e-15,51.8,4e-07,24.7
Q0U7U9_Phaeosphaeria_Uncharacterized,1.4e-15,51.7,4.1e-08,27.8
Q5B0S0_Emericella_Putative,1.5e-15,51.6,2.2e-07,25.5
A7ESX0_Sclerotinia_Uncharacterized,1.6e-15,51.5,3.5e-07,24.8
C8VJK3_Emericella_Uncharacterized,1.6e-15,51.5,7.8e-10,33.3
B6JUT2_Schizosaccharomyces_Hexose,1.6e-15,51.5,1.3e-07,26.2
S9VVD3_Schizosaccharomyces_Hexose,1.7e-15,51.5,3.7e-07,24.8
A7EP83_Sclerotinia_Uncharacterized,1.7e-15,51.4,1e-09,33.0
Q5AUE6_Emericella_Uncharacterized,2e-15,51.2,2.1e-06,22.3
A7E922_Sclerotinia_Uncharacterized,2e-15,51.2,1.3e-09,32.6
Q6C0K5_Yarrowia_YALI0F23903p,2.2e-15,51.1,1.9e-08,28.9
Q0USJ9_Phaeosphaeria_Uncharacterized,2.6e-15,50.9,5.8e-13,43.3
Q7S7L9_Neurospora_MFS,2.6e-15,50.9,7.8e-10,33.3
C8V573_Emericella_Uncharacterized,2.6e-15,50.9,1.9e-08,28.9
Q6CEA9_Yarrowia_YALI0B17138p,2.7e-15,50.8,6.2e-10,33.6
Q5BAG4_Emericella_MFS,3.1e-15,50.6,9.1e-10,33.1
P0AEP1_Escherichia_Galactose-proton,3.2e-15,50.6,1e-07,26.5
Q5KEM6_Cryptococcus_Trehalose,3.2e-15,50.6,8e-12,39.7
A0A0D1CB38_Ustilago_Putative,3.3e-15,50.5,4.6e-08,27.7
A7EWK1_Sclerotinia_Uncharacterized,3.3e-15,50.5,4.2e-08,27.8
Q0U6P1_Phaeosphaeria_Uncharacterized,3.7e-15,50.4,1.1e-08,29.6
A7EYI7_Sclerotinia_Uncharacterized,4.6e-15,50.1,2.9e-09,31.5
Q6CCU6_Yarrowia_YALI0C06424p,5.3e-15,49.9,3e-07,25.0
A0A0D1DV30_Ustilago_Chromosome,5.3e-15,49.9,3e-09,31.5
Q5ARA7_Emericella_MFS,5.7e-15,49.8,3.4e-09,31.3
G5EAX5_Emericella_Uncharacterized,5.8e-15,49.7,4.2e-06,21.4
Q6CFJ6_Yarrowia_YALI0B06391p,6.1e-15,49.7,6e-07,24.1
Q5B146_Emericella_MFS,6.6e-15,49.6,2.4e-08,28.5
A7EVD5_Sclerotinia_Uncharacterized,7.2e-15,49.4,6.7e-07,23.9
Q9P3U6_Schizosaccharomyces_High-affinity,8.2e-15,49.3,8.5e-07,23.6
E3KHP6_Puccinia_Uncharacterized,8.5e-15,49.2,1.6e-08,29.2
A7ESE7_Sclerotinia_Uncharacterized,9e-15,49.1,2.5e-07,25.3
O74713_Candida_High-affinity,9.1e-15,49.1,1e-09,33.0
Q5ASJ3_Emericella_MSTA,9.2e-15,49.1,4.2e-07,24.6
Q0UEP8_Phaeosphaeria_Uncharacterized,9.3e-15,49.1,1.7e-05,19.4
A0A0D1CV43_Ustilago_Uncharacterized,1e-14,48.9,7.3e-08,27.0
A7EZX9_Sclerotinia_Uncharacterized,1.1e-14,48.9,1.3e-09,32.7
Q7S4B3_Neurospora_High-affinity,1.1e-14,48.9,7.7e-07,23.7
Q8J0V1_Aspergillus_,1.1e-14,48.8,6e-07,24.1
Q5ATI0_Emericella_MFS,1.2e-14,48.7,2.5e-08,28.5
Q0UZ02_Phaeosphaeria_Uncharacterized,1.2e-14,48.7,2.4e-07,25.4
Q5KB77_Cryptococcus_Sugar,1.2e-14,48.7,8e-10,33.3
Q5ARV8_Emericella_Uncharacterized,1.5e-14,48.5,2e-08,28.8
Q7SEC5_Neurospora_MFS,1.7e-14,48.2,8.3e-09,30.0
Q5B906_Emericella_Uncharacterized,1.7e-14,48.2,4.5e-14,46.9
Q0UEW7_Phaeosphaeria_Uncharacterized,1.8e-14,48.2,1.7e-07,25.8
Q0UBQ4_Phaeosphaeria_Uncharacterized,1.9e-14,48.1,9e-09,29.9
Q5KGQ4_Cryptococcus_Hexose,1.9e-14,48.1,5e-07,24.3
Q0UFQ5_Phaeosphaeria_Uncharacterized,2e-14,48.0,1.7e-06,22.7
Q5KLV0_Cryptococcus_Hexose,2.1e-14,48.0,1.9e-08,28.9
A7EV59_Sclerotinia_Uncharacterized,2.2e-14,47.9,1.7e-08,29.0
A0A1D2VS03_Ascoidea_General,2.3e-14,47.8,2.1e-08,28.7
Q5B9G6_Emericella_MFS,2.4e-14,47.8,7.9e-10,33.3
A7EE39_Sclerotinia_Uncharacterized,2.5e-14,47.7,6.1e-09,30.5
Q0U7M5_Phaeosphaeria_Uncharacterized,2.6e-14,47.6,1e-07,26.5
Q5KD18_Cryptococcus_Sugar,2.7e-14,47.6,6.2e-09,30.4
Q7S9U8_Neurospora_High,2.7e-14,47.6,7.3e-07,23.8
Q0V4U7_Phaeosphaeria_Uncharacterized,2.9e-14,47.5,2.2e-08,28.7
C8VKK5_Emericella_MFS,3.2e-14,47.4,5.6e-08,27.4
Q5BC65_Emericella_MFS,3.7e-14,47.2,2.4e-06,22.2
Q5AYG1_Emericella_Uncharacterized,4e-14,47.1,2.4e-06,22.2
Q5AR96_Emericella_Uncharacterized,4.2e-14,47.0,3.7e-09,31.2
Q5B7X3_Emericella_Putative,4.3e-14,46.9,1.1e-06,23.2
A0A0D1DVV1_Ustilago_Putative,4.7e-14,46.8,2.7e-06,22.0
Q0TYT1_Phaeosphaeria_Uncharacterized,4.7e-14,46.8,1.8e-08,28.9
C8VGY9_Emericella_Uncharacterized,5.6e-14,46.6,2.7e-08,28.4
Q6CBQ5_Yarrowia_YALI0C16522p,5.7e-14,46.6,1.7e-08,29.0
P11636_Neurospora_Quinate,5.9e-14,46.5,3.4e-08,28.1
Q6C0E0_Yarrowia_YALI0F25553p,6e-14,46.5,3.5e-09,31.2
Q7SEB3_Neurospora_Sugar,6.2e-14,46.4,1.3e-08,29.4
A0A1D8PQJ5_Candida_Hgt12p,6.4e-14,46.4,2.6e-07,25.2
F2Z653_Yarrowia_YALI0A08998p,8.1e-14,46.1,2e-09,32.0
G4TIR7_Serendipita_Hexose:proton,8.8e-14,46.0,8.7e-11,36.4
Q5BAF5_Emericella_Putative,8.8e-14,46.0,9e-09,29.9
Q5KAD3_Cryptococcus_Monosaccharide,1e-13,45.7,2.9e-09,31.5
F5HC09_Neurospora_MFS,1e-13,45.7,4.3e-08,27.8
P38156_Saccharomyces_Maltose,1.1e-13,45.6,1.8e-10,35.4
A0A0D1DPR1_Ustilago_Chromosome,1.1e-13,45.6,3.4e-09,31.3
Q0UDT7_Phaeosphaeria_Uncharacterized,1.2e-13,45.6,2.1e-06,22.3
Q5KCB9_Cryptococcus_Sugar,1.2e-13,45.5,1.2e-06,23.1
Q7SC67_Neurospora_MFS,1.8e-13,45.0,9.5e-08,26.6
C8VDD8_Emericella_Putative,2e-13,44.8,8.5e-07,23.6
Q5ATB6_Emericella_Uncharacterized,2.1e-13,44.8,1.4e-09,32.5
Q7S0I5_Neurospora_MFS,2.5e-13,44.5,4e-06,21.4
Q5B6J4_Emericella_Uncharacterized,2.6e-13,44.5,1.5e-08,29.2
Q0UK19_Phaeosphaeria_Uncharacterized,2.6e-13,44.5,3.6e-09,31.2
A7EC07_Sclerotinia_Uncharacterized,2.6e-13,44.4,1.5e-09,32.4
Q7S6W6_Neurospora_Ascus,2.7e-13,44.4,1.2e-06,23.1
Q7SHD8_Neurospora_MFS,2.9e-13,44.3,6.6e-08,27.1
A7EL26_Sclerotinia_Uncharacterized,3e-13,44.2,2.3e-08,28.6
P10870_Saccharomyces_High-affinity,3.1e-13,44.2,2.8e-09,31.6
Q5K7E3_Cryptococcus_Alpha-glucoside:hydrogen,3.3e-13,44.1,4.4e-09,30.9
P0AE24_Escherichia_Arabinose-proton,3.4e-13,44.1,1.1e-08,29.6
Q0UQ96_Phaeosphaeria_Uncharacterized,3.7e-13,44.0,1.7e-07,25.8
Q5B640_Emericella_Hexose,3.7e-13,44.0,2.2e-07,25.5
Q5B0L3_Emericella_MFS,3.7e-13,44.0,2.4e-09,31.7
Q5BA46_Emericella_MFS,3.8e-13,43.9,7.6e-08,27.0
Q0U4E1_Phaeosphaeria_Uncharacterized,3.8e-13,43.9,1.5e-09,32.4
A0A0D1E6N4_Ustilago_Uncharacterized,4e-13,43.8,4.1e-06,21.4
A7EHP9_Sclerotinia_Hexose,4.1e-13,43.8,1.8e-06,22.6
Q5BDV4_Emericella_MFS,6e-13,43.3,8.6e-08,26.8
Q0UEG4_Phaeosphaeria_Uncharacterized,6.3e-13,43.2,8.9e-08,26.7
Q0V5A9_Phaeosphaeria_Uncharacterized,7.2e-13,43.0,1e-06,23.3
Q5BFG7_Emericella_Uncharacterized,7.2e-13,43.0,4.7e-08,27.6
A0A0H5C332_Cyberlindnera_SUT2,7.2e-13,43.0,1.7e-06,22.6
H0GH16_Saccharomyces_Mal11p,7.3e-13,43.0,3.3e-10,34.5
Q7SD36_Neurospora_MFS,8.1e-13,42.9,4e-06,21.5
P0CE00_Saccharomyces_Alpha-glucosides,8.5e-13,42.8,5e-10,33.9
P0CD99_Saccharomyces_Alpha-glucosides,8.8e-13,42.8,5.1e-10,33.9
Q0ULF7_Phaeosphaeria_Uncharacterized,9.1e-13,42.7,2.9e-08,28.3
P39932_Saccharomyces_Sugar,9.9e-13,42.6,3.3e-09,31.3
P53048_Saccharomyces_General,1e-12,42.5,4.6e-10,34.1
Q757Q4_Ashbya_AEL042Cp,1e-12,42.5,4.9e-07,24.3
Q5B4A0_Emericella_Uncharacterized,1.1e-12,42.5,8.5e-08,26.8
Q12300_Saccharomyces_High-affinity,1.2e-12,42.4,1.4e-07,26.1
Q5KKB7_Cryptococcus_Hexose,1.2e-12,42.4,2.4e-06,22.1
Q7S3Q4_Neurospora_High-affinity,1.2e-12,42.3,9.8e-06,20.2
Q5B1M9_Emericella_Uncharacterized,1.3e-12,42.2,7e-06,20.7
Q0V209_Phaeosphaeria_Uncharacterized,1.3e-12,42.2,3.1e-08,28.2
Q5KAD4_Cryptococcus_Monosaccharide,1.7e-12,41.9,1.9e-07,25.6
J9PER1_XUT7,1.7e-12,41.9,1.5e-06,22.9
A7ELM6_Sclerotinia_Uncharacterized,1.9e-12,41.7,1.6e-06,22.7
Q753G9_Ashbya_AFR343Cp,2e-12,41.6,2.6e-06,22.0
Q10286_Schizosaccharomyces_Myo-inositol,2.2e-12,41.5,4.1e-06,21.4
Q0UZN6_Phaeosphaeria_Uncharacterized,2.2e-12,41.5,2.7e-06,22.0
Q7S4D2_Neurospora_Sugar,2.4e-12,41.4,5e-08,27.5
Q5KMZ2_Cryptococcus_Uncharacterized,2.4e-12,41.4,7.2e-09,30.2
Q5AY26_Emericella_Uncharacterized,2.6e-12,41.3,7.8e-07,23.7
Q5B564_Emericella_MFS,2.9e-12,41.1,2.3e-05,19.0
Q7S5U3_Neurospora_Sugar,2.9e-12,41.1,2.3e-08,28.6
Q5K7D3_Cryptococcus_Sugar,3.1e-12,41.0,1.7e-06,22.7
A7F490_Sclerotinia_Uncharacterized,3.1e-12,41.0,8.1e-09,30.1
Q0U6U5_Phaeosphaeria_Uncharacterized,3.2e-12,41.0,3.5e-08,28.0
A7EIM3_Sclerotinia_Uncharacterized,3.3e-12,40.9,1.4e-07,26.1
Q5KD28_Cryptococcus_Sugar,3.4e-12,40.9,4.5e-07,24.5
Q5KC74_Cryptococcus_Glucose,3.5e-12,40.8,1.5e-07,26.0
Q7S2N0_Neurospora_Hexose,3.8e-12,40.7,4.5e-09,30.9
C8VN19_Emericella_MFS,3.9e-12,40.7,3.9e-07,24.7
A7EFW7_Sclerotinia_Uncharacterized,4.8e-12,40.4,8.5e-06,20.4
Q6C8K6_Yarrowia_YALI0D18876p,4.8e-12,40.4,2.7e-08,28.4
Q0UN42_Phaeosphaeria_Uncharacterized,5.4e-12,40.2,1.9e-09,32.1
Q5KLB7_Cryptococcus_Sugar,5.6e-12,40.2,2e-08,28.8
Q5KLJ3_Cryptococcus_Hexose,5.6e-12,40.2,5.5e-07,24.2
Q5K806_Cryptococcus_Trehalose,6e-12,40.1,2.2e-08,28.7
Q5BA86_Emericella_Uncharacterized,6.1e-12,40.1,4.5e-06,21.3
C8V4X1_Emericella_Uncharacterized,6.1e-12,40.1,1e-06,23.3
A0A0D1E3J0_Ustilago_Chromosome,6.4e-12,40.0,7.5e-06,20.6
Q0V482_Phaeosphaeria_Uncharacterized,6.4e-12,40.0,1.9e-06,22.5
Q5ATD2_Emericella_Uncharacterized,8.3e-12,39.6,2.4e-07,25.3
Q6C2L7_Yarrowia_YALI0F06776p,8.4e-12,39.6,2.8e-05,18.7
Q7RXF1_Neurospora_High,8.6e-12,39.6,1.1e-05,20.1
Q5AQY5_Emericella_Uncharacterized,9.5e-12,39.4,3.4e-05,18.5
Q5B2A7_Emericella_MFS,9.9e-12,39.4,1.7e-06,22.7
Q5K6S8_Cryptococcus_Receptor,1e-11,39.4,2.1e-06,22.3
P87110_Schizosaccharomyces_Myo-inositol,1e-11,39.4,1.6e-05,19.5
Q5BAG5_Emericella_Uncharacterized,1e-11,39.4,4e-06,21.4
Q5K996_Cryptococcus_Sugar,1e-11,39.3,1.9e-06,22.5
Q1K5U7_Neurospora_Major,1e-11,39.3,3.8e-10,34.3
Q75A29_Ashbya_ADR091Wp,1.2e-11,39.2,2.3e-06,22.2
E3KAD1_Puccinia_Uncharacterized,1.3e-11,39.0,1.3e-05,19.8
A7EV29_Sclerotinia_Uncharacterized,1.3e-11,39.0,4.2e-05,18.2
A7EXR0_Sclerotinia_Uncharacterized,1.3e-11,39.0,2.4e-08,28.5
A7EQL6_Sclerotinia_Uncharacterized,1.3e-11,39.0,7.4e-06,20.6
Q0V5V1_Phaeosphaeria_Uncharacterized,1.7e-11,38.7,1.9e-08,28.9
A0A0D1DQD8_Ustilago_Putative,1.7e-11,38.6,7.4e-08,27.0
Q6CH11_Yarrowia_YALI0A14212p,1.9e-11,38.5,2.7e-08,28.4
E3K4I4_Puccinia_Uncharacterized,1.9e-11,38.5,1e-06,23.3
A0A0D1DUB9_Ustilago_Putative,2.1e-11,38.3,4.2e-07,24.6
Q5KA16_Cryptococcus_Hexose,2.3e-11,38.2,2.3e-06,22.2
C8VEW6_Emericella_MFS,2.4e-11,38.2,1.8e-05,19.3
A7EYJ7_Sclerotinia_Uncharacterized,2.4e-11,38.2,2.3e-06,22.2
Q5KE75_Cryptococcus_Hexose,2.4e-11,38.2,1.5e-08,29.2
Q0UWD8_Phaeosphaeria_Uncharacterized,2.5e-11,38.1,1.1e-09,32.8
A7ESU3_Sclerotinia_Uncharacterized,2.5e-11,38.1,4.7e-05,18.0
Q0UC03_Phaeosphaeria_Uncharacterized,2.6e-11,38.1,7.1e-07,23.9
Q5KC79_Cryptococcus_Monosaccharide,2.6e-11,38.0,8.6e-06,20.4
Q0UAV1_Phaeosphaeria_Uncharacterized,2.9e-11,37.9,1.1e-06,23.3
Q5KCC5_Cryptococcus_Galactose,3e-11,37.9,3.3e-06,21.7
P15325_Emericella_Quinate,3e-11,37.8,2.8e-05,18.7
Q5B351_Emericella_Uncharacterized,3.2e-11,37.8,1.1e-08,29.6
Q0V5V3_Phaeosphaeria_Uncharacterized,3.3e-11,37.7,1.3e-06,23.0
Q759Y4_Ashbya_ADR139Cp,3.3e-11,37.7,4e-07,24.6
Q5B4E0_Emericella_MFS,3.5e-11,37.7,2.1e-10,35.1
A0A120K0N0_Eremothecium_HBL392Wp,3.8e-11,37.5,9.8e-07,23.4
A0A0D1CH63_Ustilago_Chromosome,3.9e-11,37.5,7.8e-06,20.5
Q1K4Q4_Neurospora_MFS,4.1e-11,37.4,5.9e-06,20.9
Q5KFV2_Cryptococcus_Alpha-glucoside,4.1e-11,37.4,6.6e-08,27.2
A7E6K3_Sclerotinia_Uncharacterized,4.2e-11,37.4,1.9e-05,19.3
Q5AUB8_Emericella_Hexose,4.7e-11,37.2,1.3e-09,32.6
Q5AY25_Emericella_Uncharacterized,5.2e-11,37.1,9.5e-05,17.0
Q5KFT7_Cryptococcus_Trehalose,6e-11,36.9,6.6e-08,27.2
A7EI64_Sclerotinia_Uncharacterized,6.9e-11,36.7,4.5e-06,21.3
Q5B313_Emericella_MFS,7.1e-11,36.6,1.1e-07,26.4
Q5KFZ7_Cryptococcus_Maltose,7.1e-11,36.6,1e-08,29.7
Q0UB33_Phaeosphaeria_Uncharacterized,7.7e-11,36.5,4.5e-08,27.7
Q0UC67_Phaeosphaeria_Uncharacterized,8.5e-11,36.4,3e-09,31.5
Q5K9G5_Cryptococcus_Hexose,8.8e-11,36.4,1.3e-09,32.6
Q5B8D1_Emericella_MFS,9.8e-11,36.2,1.1e-09,32.8
Q0UMJ7_Phaeosphaeria_Uncharacterized,1.1e-10,36.0,1.8e-09,32.2
Q0UZC4_Phaeosphaeria_Uncharacterized,1.2e-10,35.9,1.7e-09,32.2
Q5KKF1_Cryptococcus_Receptor,1.2e-10,35.9,8.2e-06,20.4
Q5AS18_Emericella_Myo-inositol,1.3e-10,35.8,8.3e-05,17.2
Q0UYE5_Phaeosphaeria_Uncharacterized,1.3e-10,35.8,1.8e-08,29.0
Q0V473_Phaeosphaeria_Uncharacterized,1.4e-10,35.7,3.8e-05,18.3
A7TNE9_Vanderwaltozyma_Uncharacterized,1.5e-10,35.6,9.7e-08,26.6
Q5AX61_Emericella_Uncharacterized,1.6e-10,35.6,1.6e-05,19.5
Q5KQ57_Cryptococcus_Hexose,1.6e-10,35.5,1.2e-07,26.4
R9XBD5_Ashbya_AaceriAFR602Wp,1.7e-10,35.5,7.6e-05,17.4
A7E7M4_Sclerotinia_Uncharacterized,1.7e-10,35.4,3.6e-07,24.8
Q5B922_Emericella_MFS,1.8e-10,35.4,1.3e-05,19.8
A0A0D1BW32_Ustilago_Putative,1.8e-10,35.3,2.9e-09,31.5
Q0URV6_Phaeosphaeria_Uncharacterized,1.8e-10,35.3,1.7e-09,32.2
Q0UXG5_Phaeosphaeria_Uncharacterized,1.9e-10,35.3,9.9e-09,29.8
Q5AWI6_Emericella_Uncharacterized,2.2e-10,35.1,3.4e-07,24.9
Q5B897_Emericella_MFS,2.2e-10,35.1,4.5e-10,34.1
Q5ARB2_Emericella_Uncharacterized,2.3e-10,35.0,0.00016,16.3
Q5KJA6_Cryptococcus_Myo-inositol,2.4e-10,35.0,7.3e-06,20.6
P30606_Saccharomyces_Myo-inositol,2.6e-10,34.8,0.00016,16.4
C8V063_Emericella_Uncharacterized,2.9e-10,34.7,2.9e-06,21.9
Q5KKT2_Cryptococcus_Monosaccharide,2.9e-10,34.7,2.6e-07,25.2
Q7SD12_Neurospora_Hexose,3.1e-10,34.6,2e-07,25.6
Q0UE06_Phaeosphaeria_Uncharacterized,3.1e-10,34.6,5.9e-09,30.5
A0A1E3QY08_Babjeviella_Uncharacterized,3.2e-10,34.5,8e-05,17.3
A0A0D1BW19_Ustilago_Putative,3.4e-10,34.5,2.8e-07,25.1
Q5B9B1_Emericella_Galactose-proton,3.6e-10,34.4,7.6e-06,20.6
E3K4I8_Puccinia_Uncharacterized,4.1e-10,34.2,2.5e-05,18.9
Q5BA29_Emericella_MFS,4.2e-10,34.2,1.1e-07,26.4
H6QQK8_Puccinia_Uncharacterized,4.8e-10,34.0,2.7e-05,18.8
Q6CI42_Yarrowia_YALI0A01958p,5.3e-10,33.9,1.4e-06,22.9
Q0V436_Phaeosphaeria_Uncharacterized,5.3e-10,33.9,5.1e-05,17.9
Q0UCX5_Phaeosphaeria_Uncharacterized,5.7e-10,33.7,0.00013,16.6
Q7S0R2_Neurospora_Sugar,5.8e-10,33.7,3.2e-05,18.6
F2Z6E4_Kluyveromyces_KLLA0E20945p,8.4e-10,33.2,6.3e-06,20.8
Q5KE69_Cryptococcus_Hexose,8.8e-10,33.2,6.1e-06,20.8
Q5KHG7_Cryptococcus_Sugar,9.1e-10,33.1,4.9e-09,30.8
A0A0D1DZM6_Ustilago_Uncharacterized,9.4e-10,33.1,5.5e-07,24.2
C8VEH9_Emericella_MFS,9.8e-10,33.0,2.6e-07,25.2
Q5BGT0_Emericella_MFS,9.9e-10,33.0,9.9e-10,33.0
Q6C1A0_Yarrowia_YALI0F18084p,1.1e-09,32.9,0.00036,15.2
P30605_Saccharomyces_Myo-inositol,1.2e-09,32.7,0.00013,16.6
Q6C576_Yarrowia_YALI0E20427p,1.2e-09,32.7,8.7e-08,26.8
Q5AXY2_Emericella_MFS,1.4e-09,32.5,8.5e-05,17.2
Q0UR01_Phaeosphaeria_Uncharacterized,1.5e-09,32.4,0.00015,16.4
Q7SCU1_Neurospora_MFS,1.5e-09,32.4,1.8e-07,25.7
Q7S6X8_Neurospora_MFS,1.5e-09,32.4,5.8e-05,17.7
Q0V3J5_Phaeosphaeria_Uncharacterized,1.6e-09,32.3,7.4e-06,20.6
C8VI98_Emericella_MFS,1.7e-09,32.2,0.00039,15.1
Q6CAT5_Yarrowia_YALI0D00132p,1.7e-09,32.2,0.00034,15.3
Q5K6W0_Cryptococcus_Hexose,2.1e-09,32.0,5.9e-08,27.3
W0TH43_Kluyveromyces_Hexose,2.5e-09,31.7,4.2e-06,21.4
Q5B8B0_Emericella_MFS,2.7e-09,31.6,9e-05,17.1
Q7S871_Neurospora_MFS,2.8e-09,31.5,2e-07,25.6
Q7S9G3_Neurospora_MFS,2.8e-09,31.5,2.8e-07,25.1
C8VIA6_Emericella_MFS,3e-09,31.5,2.9e-06,21.9
Q5AXZ6_Emericella_MFS,3.4e-09,31.3,1.8e-08,29.0
H0GM23_Saccharomyces_Hxt14p,3.6e-09,31.2,0.0001,16.9
Q5BEC1_Emericella_MFS,3.7e-09,31.2,0.00033,15.3
A0A0L8VI33_Saccharomyces_HXT14p,4.2e-09,31.0,0.0001,16.9
Q6CG69_Yarrowia_YALI0B00396p,4.8e-09,30.8,2e-05,19.2
A7EG32_Sclerotinia_Uncharacterized,4.9e-09,30.8,1.9e-08,28.9
Q5AV14_Emericella_MFS,5.2e-09,30.7,3.1e-06,21.8
A7F666_Sclerotinia_Uncharacterized,5.4e-09,30.6,1.1e-07,26.4
Q5B7G5_Emericella_MFS,6.6e-09,30.3,1.1e-05,20.0
P42833_Saccharomyces_Hexose,7e-09,30.3,0.0001,16.9
Q0V7D1_Phaeosphaeria_Uncharacterized,7.1e-09,30.2,8.4e-07,23.6
Q75CZ9_Ashbya_ABR223Cp,7.5e-09,30.2,1.5e-07,26.0
Q0UM13_Phaeosphaeria_Uncharacterized,9.8e-09,29.8,9.8e-09,29.8
H6QQA6_Puccinia_Uncharacterized,1.1e-08,29.6,1.5e-05,19.6
Q6CAS4_Yarrowia_YALI0D00363p,1.3e-08,29.4,1.8e-07,25.7
Q0U240_Phaeosphaeria_Uncharacterized,1.3e-08,29.4,5.5e-08,27.4
Q0UBM8_Phaeosphaeria_Uncharacterized,1.4e-08,29.3,1.5e-07,26.0
Q5AXZ9_Emericella_Uncharacterized,1.5e-08,29.2,8.5e-08,26.8
Q5AXB3_Emericella_Uncharacterized,1.5e-08,29.2,1.2e-06,23.1
A7F7Z0_Sclerotinia_Uncharacterized,1.6e-08,29.2,2.3e-07,25.4
H2API6_Kazachstania_Uncharacterized,1.8e-08,28.9,3.8e-07,24.7
H6QR48_Puccinia_Uncharacterized,1.9e-08,28.9,2.4e-07,25.4
Q5KLH9_Cryptococcus_Hexose,2e-08,28.8,0.00096,13.8
Q5B0R6_Emericella_MFS,2e-08,28.8,1.7e-06,22.6
Q5AS41_Emericella_MFS,2.3e-08,28.6,8.8e-08,26.7
Q751I3_Ashbya_AGL277Wp,2.3e-08,28.6,0.00015,16.4
Q5BA16_Emericella_Plasma,2.6e-08,28.5,3.5e-07,24.8
Q752H1_Ashbya_AFR602Wp,3.6e-08,28.0,0.00041,15.0
Q5B2C6_Emericella_MFS,3.9e-08,27.9,1.1e-05,20.1
Q0UKI4_Phaeosphaeria_Uncharacterized,4.4e-08,27.7,1e-06,23.3
C5DSU9_Zygosaccharomyces_ZYRO0C03168p,5.2e-08,27.5,4.4e-05,18.1
Q0UTY6_Phaeosphaeria_Uncharacterized,5.3e-08,27.4,5.6e-06,21.0
A7F7C6_Sclerotinia_Uncharacterized,5.8e-08,27.3,4.4e-06,21.3
Q0UJT8_Phaeosphaeria_Uncharacterized,8.2e-08,26.9,1.8e-05,19.3
Q5B4A9_Emericella_Uncharacterized,1e-07,26.6,7.7e-05,17.3
Q04162_Saccharomyces_Probable,1.3e-07,26.2,0.00036,15.2
Q0U9X6_Phaeosphaeria_Uncharacterized,1.4e-07,26.2,1.1e-06,23.3
Q5KQ09_Cryptococcus_ITR1,1.7e-07,25.8,0.0008,14.1
Q5KCB5_Cryptococcus_Myo-inositol,1.9e-07,25.7,0.00025,15.7
Q5KJA2_Cryptococcus_Myo-inositol,2.1e-07,25.6,0.00027,15.6
Q0TZ39_Phaeosphaeria_Uncharacterized,2.2e-07,25.5,1.9e-06,22.5
C8VHD5_Emericella_MFS,2.8e-07,25.2,1.7e-06,22.7
Q5B7I2_Emericella_MFS,3.2e-07,24.9,6.1e-06,20.9
Q5KCH2_Cryptococcus_Myo-inositol,3.3e-07,24.9,0.0005,14.7
Q0V1C3_Phaeosphaeria_Uncharacterized,3.7e-07,24.7,2.8e-06,21.9
C8V1W1_Emericella_MFS,3.9e-07,24.7,0.0018,12.9
Q7SBU8_Neurospora_Uncharacterized,4.1e-07,24.6,2.7e-06,22.0
Q7SC74_Neurospora_Uncharacterized,4.7e-07,24.4,2e-05,19.2
J8Q3E2_Saccharomyces_Hxt14p,5.9e-07,24.1,5.4e-05,17.8
A7F9N5_Sclerotinia_Uncharacterized,6.6e-07,23.9,6.6e-07,23.9
A0A0L8RBQ3_Saccharomyces_HXT14-like,1.1e-06,23.3,1.9e-05,19.3
Q5KD25_Cryptococcus_Myo-inositol,1.1e-06,23.3,0.0018,12.9
Q5KA14_Cryptococcus_Myo-inositol,1.1e-06,23.3,0.0018,12.9
Q5BEU2_Emericella_MFS,1.4e-06,22.9,3.3e-06,21.7
C8V2K8_Emericella_Uncharacterized,1.8e-06,22.6,6.4e-05,17.6
E3K730_Puccinia_Uncharacterized,2.2e-06,22.3,0.00013,16.6
A7F1X0_Sclerotinia_Uncharacterized,2.4e-06,22.2,0.0025,12.5
G0WDR7_Naumovozyma_Uncharacterized,2.4e-06,22.2,0.00081,14.1
Q5KDS2_Cryptococcus_Myo-inositol,2.8e-06,21.9,0.001,13.8
G0VFD9_Naumovozyma_Uncharacterized,3.2e-06,21.8,0.00014,16.5
Q6FJR9_Candida_Uncharacterized,3.5e-06,21.6,1.2e-05,19.9
Q5KGN5_Cryptococcus_Hexose,7.2e-06,20.6,0.00066,14.3
Q0U756_Phaeosphaeria_Uncharacterized,3.8e-05,18.3,0.00012,16.7
A7E9Y7_Sclerotinia_Uncharacterized,5.7e-05,17.7,0.00016,16.4
E3K729_Puccinia_Uncharacterized,0.00014,16.5,0.094,7.5
P43562_Saccharomyces_Probable,0.0003,15.4,0.085,7.6
A0A0F4XBT1_Hanseniaspora_Uncharacterized,0.00054,14.6,0.43,5.3
Q5BCA0_Emericella_MFS,0.0011,13.7,0.0011,13.7
A0A1E5R8U5_Hanseniaspora_Hexose,0.0016,13.1,0.38,5.5
A7E6R1_Sclerotinia_Uncharacterized,0.0026,12.5,0.017,9.8
