
		%%%%%%%%%%%%%%%%%%%%%%%%%%%%%%%%%%%%%%%%%%%%%%%%%%%
		% B-factor and local structure quality estimation %
		%       in I-TASSER structure modeling            %
		%%%%%%%%%%%%%%%%%%%%%%%%%%%%%%%%%%%%%%%%%%%%%%%%%%%

1. How was the local accuracy estimated?

    The local accuracy was defined as the distance deviation (in Angstrom) between residue positions 
    in the model and the native structure. It was estimated using support vector regression that makes 
    use of the coverage of threading alignment, divergence of I-TASSER simulation decoys, and 
    sequence-based secondary structure and solvent accessibility predictions. Large-scale benchmark 
    tests show that the estimated local accuracy has an average error of 2.21 Angstrom and the
    Pearson's correlation coefficient between estimated and actual error is 0.7. 

    Based on these tests, the local accuracy estimations tend to be  more accurate for residues:
	 1) that have higher threading alignment coverage
	 2) that are located at alpha-helix and beta-strand regions
	 3) that are buried (at 25% threshold)

    The estimated local accuracy for each model is available at the columns 61-66 in the model's PDB file
    and also at the bottom of this page (columns with label RSQ_*).

2. What is normalized B-factor?

    Normalized B-factor for a target protein is defined as z-score-based normalization of the 
    raw B-factor values. The normalized B-factor (called B-factor profile, BFP) is predicted using a 
    combination of both template-based assignment and profile-based prediction. Based on the distributions
    and predictions of the BFP, residues with BFP values higher than 0 are less stable in experimental 
    structures. The estimated normalized B-factor is shown at the bottom of this page.

For more information about the local accuracy and normalized B-factor predictions, please refer to the 
following article:

J Yang, Y Wang, Y Zhang. ResQ: An approach to unified estimation of B-factor and residue-specific error 
in protein structure prediction, Journal of Molecular Biology, 428: 693-701 (2016).
#RES	SS	SA	COV	BFP	RSQ_1	RSQ_2	RSQ_3	RSQ_4	RSQ_5	
1	C	E	0.07	2.18	28.48	34.17	30.99	29.19	34.91	
2	C	E	0.05	1.78	27.30	33.43	30.14	28.75	34.10	
3	C	E	0.05	1.45	26.35	32.64	29.11	28.10	33.19	
4	C	E	0.02	0.76	25.58	31.60	28.48	27.35	32.17	
5	C	E	0.02	0.78	24.91	30.68	27.87	26.17	31.16	
6	C	E	0.02	0.65	24.14	29.58	27.17	25.27	30.24	
7	C	E	0.02	0.17	23.69	28.55	26.28	24.79	29.08	
8	C	E	0.02	0.49	23.36	27.48	25.39	23.91	27.79	
9	C	E	0.02	1.02	22.88	26.57	24.48	22.96	26.48	
10	C	E	0.02	0.78	22.27	24.92	24.12	21.93	25.23	
11	C	E	0.02	0.69	22.02	23.65	23.75	21.20	23.78	
12	C	E	0.02	0.76	20.89	21.75	23.10	19.56	22.33	
13	C	E	0.02	0.69	20.17	20.81	22.74	18.61	20.76	
14	C	E	0.02	0.73	19.10	20.23	22.22	17.92	21.27	
15	C	E	0.03	1.05	18.85	20.19	21.84	18.06	21.05	
16	C	E	0.03	0.98	18.14	20.21	21.24	18.21	22.00	
17	C	E	0.03	0.84	17.53	20.16	20.53	19.28	22.46	
18	H	E	0.02	1.03	17.35	20.26	20.84	19.54	23.98	
19	H	E	0.02	0.74	17.26	19.25	21.37	18.77	24.66	
20	C	E	0.02	0.47	17.30	18.58	19.80	19.43	24.56	
21	C	E	0.02	0.50	17.48	18.93	17.79	20.30	25.54	
22	C	E	0.04	0.89	17.12	19.03	18.50	19.70	26.45	
23	C	E	0.05	0.69	17.30	18.48	18.96	19.45	26.30	
24	C	E	0.07	0.83	17.31	18.27	17.19	19.37	25.24	
25	C	E	0.06	0.79	16.84	17.98	16.19	18.64	25.06	
26	C	E	0.07	0.62	15.25	16.40	15.16	16.79	23.92	
27	C	E	0.07	0.52	14.04	15.27	13.80	15.45	23.04	
28	C	E	0.07	0.56	13.23	14.24	12.83	14.47	21.76	
29	C	E	0.07	0.42	12.15	13.47	12.64	13.29	20.64	
30	C	E	0.07	0.56	11.49	12.83	12.77	12.62	21.20	
31	C	E	0.06	0.48	10.36	12.23	12.59	11.30	20.50	
32	C	E	0.09	0.60	10.28	12.12	13.04	11.01	20.32	
33	C	E	0.12	0.46	9.08	11.06	12.06	9.63	18.61	
34	C	E	0.14	0.51	8.88	11.35	12.20	9.04	17.89	
35	C	E	0.20	0.46	7.58	10.28	10.44	7.84	16.60	
36	C	E	0.19	0.37	6.35	9.89	9.59	6.91	15.83	
37	C	E	0.22	0.23	6.32	9.42	9.20	6.82	13.92	
38	C	B	0.22	0.00	5.89	9.29	8.29	6.48	12.43	
39	C	E	0.39	0.13	5.36	8.62	7.80	5.84	9.25	
40	H	B	0.42	0.02	6.02	9.19	7.62	6.79	7.80	
41	H	B	0.52	-0.18	5.13	7.95	7.24	5.47	7.17	
42	H	B	0.55	-0.44	4.81	7.58	7.03	5.28	6.98	
43	H	B	0.59	-0.42	4.58	7.39	6.63	5.17	6.78	
44	H	B	0.65	-0.56	4.14	6.88	6.19	4.79	6.47	
45	H	B	0.68	-0.54	4.07	6.64	6.20	4.72	6.39	
46	H	B	0.80	-0.60	4.00	6.52	5.95	4.71	6.17	
47	H	B	0.86	-0.63	3.61	6.13	5.40	4.49	5.86	
48	H	B	0.87	-0.74	3.43	5.83	5.28	4.28	5.76	
49	H	B	0.87	-0.67	3.52	5.82	5.42	4.32	5.78	
50	H	B	0.85	-0.77	3.56	5.84	5.29	4.42	5.67	
51	H	B	0.85	-0.72	3.35	5.56	4.90	4.29	5.51	
52	H	B	0.85	-0.69	3.27	5.35	4.91	4.18	5.52	
53	H	E	0.86	-0.61	3.29	5.33	4.89	4.20	5.41	
54	H	B	0.86	-0.79	3.27	5.17	4.66	4.19	5.28	
55	H	B	0.85	-0.78	3.08	4.93	4.53	4.00	5.32	
56	H	B	0.85	-0.71	3.16	5.08	4.77	4.08	5.45	
57	H	E	0.87	-0.72	3.12	4.98	4.53	4.04	5.20	
58	H	B	0.87	-0.78	3.01	4.71	4.29	3.92	5.09	
59	H	B	0.85	-0.88	3.07	4.71	4.41	3.90	5.39	
60	H	E	0.85	-0.73	3.18	4.98	4.61	4.03	5.43	
61	H	E	0.84	-0.80	3.31	5.02	4.60	4.14	5.34	
62	H	B	0.85	-0.89	3.26	4.82	4.39	4.02	5.35	
63	H	B	0.85	-0.82	3.30	5.04	4.58	4.10	5.58	
64	H	E	0.85	-0.54	3.36	5.27	4.65	4.15	5.60	
65	H	B	0.85	-0.76	3.44	5.36	4.65	4.08	5.59	
66	H	B	0.82	-0.81	3.54	5.59	4.87	4.18	5.84	
67	H	B	0.73	-0.60	3.93	6.13	5.28	4.74	6.28	
68	H	B	0.68	-0.64	4.03	6.10	5.12	4.60	6.21	
69	H	B	0.66	-0.56	4.13	6.22	5.31	4.54	6.54	
70	C	B	0.55	-0.48	5.65	9.01	6.43	5.88	7.79	
71	C	B	0.59	-0.45	6.20	9.18	7.67	6.41	7.68	
72	H	E	0.71	-0.16	6.36	9.45	7.78	6.48	7.64	
73	H	B	0.72	-0.36	6.28	8.28	7.97	6.53	8.25	
74	H	B	0.75	-0.51	5.82	7.82	7.95	6.42	7.34	
75	H	B	0.76	-0.23	6.73	8.41	8.12	7.38	7.67	
76	H	E	0.75	0.10	7.57	8.76	8.37	8.01	7.89	
77	H	E	0.73	-0.13	7.20	9.05	8.51	7.73	7.89	
78	C	B	0.70	-0.21	6.92	8.99	8.57	7.30	7.76	
79	C	E	0.63	0.03	7.83	9.20	8.93	8.42	8.38	
80	C	E	0.56	0.29	9.36	10.23	9.78	10.20	9.12	
81	C	E	0.54	0.45	9.34	10.65	10.12	10.34	9.17	
82	C	E	0.52	0.60	8.45	10.65	9.56	9.19	8.89	
83	C	E	0.50	0.68	7.72	9.38	8.84	8.67	8.23	
84	C	E	0.52	0.66	6.95	7.83	8.40	7.33	7.12	
85	C	E	0.56	0.62	6.54	7.59	7.19	7.29	7.01	
86	C	E	0.57	0.42	6.41	7.64	6.83	7.20	7.06	
87	C	E	0.65	0.27	5.85	7.33	6.66	6.48	6.77	
88	C	E	0.65	0.10	5.97	7.40	6.69	6.61	6.81	
89	C	B	0.79	-0.23	5.86	7.05	6.29	6.39	6.55	
90	C	E	0.82	-0.20	5.23	6.69	5.89	5.29	6.34	
91	H	E	0.83	-0.20	4.63	6.35	5.43	4.78	6.06	
92	H	B	0.85	-0.36	4.84	6.35	5.59	5.02	5.96	
93	H	B	0.87	-0.51	4.68	6.17	5.37	4.88	5.84	
94	H	B	0.88	-0.57	4.03	5.94	4.98	4.26	5.75	
95	H	B	0.88	-0.77	3.99	6.02	5.19	4.31	5.71	
96	H	B	0.88	-0.81	4.24	5.89	5.18	4.49	5.57	
97	H	B	0.88	-0.92	3.86	5.61	4.81	4.20	5.46	
98	H	B	0.88	-1.01	3.68	5.76	4.93	4.15	5.58	
99	H	B	0.88	-0.94	3.80	5.88	5.15	4.36	5.54	
100	H	B	0.88	-0.97	3.77	5.64	5.01	4.27	5.31	
101	H	B	0.88	-1.08	3.45	5.08	4.54	4.09	5.08	
102	H	B	0.88	-0.87	3.45	5.13	4.59	4.10	5.08	
103	H	B	0.88	-0.88	3.65	5.34	4.88	4.27	5.02	
104	H	B	0.88	-1.00	3.56	5.18	4.73	4.27	4.91	
105	H	B	0.88	-0.93	3.36	4.96	4.39	4.10	4.87	
106	H	B	0.88	-0.84	3.50	5.17	4.72	4.23	4.85	
107	H	B	0.88	-0.88	3.63	5.31	4.91	4.41	4.83	
108	H	B	0.88	-0.93	3.43	5.04	4.52	4.29	4.77	
109	H	B	0.88	-0.88	3.34	4.98	4.40	4.14	4.77	
110	H	B	0.88	-0.82	3.54	5.34	4.90	4.37	4.78	
111	H	B	0.88	-0.76	3.54	5.30	4.83	4.47	4.78	
112	H	B	0.88	-0.71	3.29	5.19	4.43	4.28	4.88	
113	H	B	0.88	-0.63	3.58	5.63	4.61	4.47	5.18	
114	H	E	0.88	-0.46	3.79	5.69	4.74	4.67	5.18	
115	H	B	0.88	-0.46	3.35	5.41	4.58	4.47	5.04	
116	H	B	0.88	-0.58	3.25	5.52	4.49	4.35	5.18	
117	H	B	0.88	-0.37	3.26	5.74	4.72	4.50	5.25	
118	H	E	0.88	-0.22	3.37	5.76	4.80	4.67	5.25	
119	H	E	0.88	-0.38	3.29	5.68	4.70	4.63	5.26	
120	C	B	0.88	-0.58	3.21	5.74	4.66	4.50	5.37	
121	C	B	0.88	-0.52	3.19	5.60	4.57	4.43	5.35	
122	H	E	0.88	-0.52	3.07	5.48	4.55	4.36	5.24	
123	H	B	0.88	-0.52	3.23	5.53	4.66	4.52	5.21	
124	H	B	0.88	-0.69	3.25	5.33	4.50	4.41	5.08	
125	H	B	0.88	-0.82	3.18	5.21	4.43	4.30	5.04	
126	H	B	0.88	-0.90	3.31	5.37	4.74	4.47	5.08	
127	H	B	0.88	-0.87	3.77	5.59	5.01	4.71	5.29	
128	H	B	0.88	-0.78	4.03	5.85	5.10	4.77	5.45	
129	H	B	0.88	-0.76	3.98	5.86	5.18	4.69	5.41	
130	H	E	0.88	-0.71	4.18	6.06	5.47	4.86	5.44	
131	H	E	0.88	-0.80	3.75	5.54	5.06	4.53	5.08	
132	H	B	0.88	-0.85	3.68	5.43	4.93	4.40	5.12	
133	H	B	0.88	-0.83	4.03	5.90	5.43	4.64	5.33	
134	H	B	0.88	-0.76	4.08	5.97	5.56	4.68	5.31	
135	H	B	0.88	-0.74	3.78	5.62	5.18	4.44	5.17	
136	H	B	0.88	-0.82	3.81	5.74	5.27	4.42	5.30	
137	H	B	0.88	-0.88	4.04	6.09	5.63	4.58	5.38	
138	H	B	0.88	-0.81	3.91	5.96	5.52	4.46	5.32	
139	H	B	0.87	-0.80	3.89	5.79	5.13	4.39	5.37	
140	H	B	0.88	-0.63	4.03	5.95	5.37	4.65	5.47	
141	H	B	0.88	-0.45	4.43	6.16	5.70	4.94	5.53	
142	H	B	0.86	-0.42	5.03	7.31	5.71	5.59	6.09	
143	H	B	0.75	-0.34	6.90	8.36	6.83	7.44	7.54	
144	C	B	0.82	-0.24	6.22	7.44	6.01	6.68	7.26	
145	C	B	0.87	-0.36	4.99	6.43	5.65	5.51	5.97	
146	H	B	0.88	-0.49	4.69	6.05	5.42	5.03	5.85	
147	H	B	0.88	-0.59	4.80	6.09	5.53	5.17	5.71	
148	H	B	0.88	-0.77	4.57	6.04	5.39	5.06	5.50	
149	H	B	0.88	-0.77	3.98	5.74	5.03	4.40	5.30	
150	H	B	0.88	-0.83	3.94	5.52	4.96	4.36	5.21	
151	H	B	0.88	-0.82	4.04	5.55	5.11	4.55	5.15	
152	H	B	0.88	-1.04	3.78	5.43	4.92	4.44	5.11	
153	H	B	0.88	-0.85	3.56	5.26	4.73	4.18	5.12	
154	H	B	0.88	-0.81	3.71	5.26	4.81	4.30	5.01	
155	H	B	0.88	-0.80	3.57	5.18	4.80	4.30	4.85	
156	H	B	0.88	-0.91	3.39	4.98	4.54	4.17	4.89	
157	H	B	0.88	-0.90	3.38	4.91	4.41	4.12	4.88	
158	H	B	0.88	-0.83	3.48	5.01	4.52	4.27	4.81	
159	H	B	0.88	-0.89	3.38	5.04	4.48	4.26	4.89	
160	H	B	0.86	-0.90	3.24	4.76	4.18	4.06	4.92	
161	H	B	0.85	-0.94	3.36	4.85	4.26	4.15	4.90	
162	H	B	0.87	-0.79	3.27	4.96	4.26	4.23	4.89	
163	H	B	0.88	-0.78	3.09	4.89	4.19	4.10	4.95	
164	H	B	0.88	-0.84	3.05	4.86	4.21	4.00	5.03	
165	H	B	0.88	-0.93	3.16	5.09	4.28	4.07	5.07	
166	H	B	0.88	-0.83	3.18	5.19	4.25	4.15	5.13	
167	H	B	0.88	-0.93	2.99	5.10	4.37	4.08	5.19	
168	H	B	0.88	-0.86	3.08	5.19	4.56	4.12	5.34	
169	H	B	0.88	-0.79	3.12	5.44	4.50	4.12	5.33	
170	H	B	0.88	-0.79	2.95	5.46	4.55	4.09	5.33	
171	H	B	0.88	-0.77	2.99	5.47	4.88	4.09	5.54	
172	H	B	0.88	-0.54	3.09	5.66	4.98	4.12	5.60	
173	H	B	0.88	-0.43	3.04	5.93	5.04	4.15	5.67	
174	H	B	0.88	-0.35	3.10	6.05	5.20	4.18	5.78	
175	C	B	0.88	-0.39	3.20	6.09	5.50	4.19	5.97	
176	C	B	0.88	-0.23	3.36	6.47	5.90	4.19	6.20	
177	H	E	0.88	0.01	3.47	6.48	5.78	4.26	6.15	
178	H	E	0.88	-0.01	3.60	6.62	6.14	4.28	6.33	
179	H	B	0.88	-0.39	3.43	6.23	5.93	4.22	6.18	
180	H	B	0.88	-0.28	3.35	6.02	5.61	4.24	6.01	
181	H	B	0.88	-0.65	3.28	5.83	5.61	4.11	5.92	
182	H	B	0.88	-0.70	3.24	5.74	5.72	4.18	6.02	
183	H	B	0.88	-0.74	3.08	5.53	5.39	4.05	5.82	
184	H	B	0.88	-0.66	3.01	5.26	5.15	4.09	5.63	
185	H	B	0.88	-0.60	3.06	5.28	5.32	3.93	5.75	
186	H	B	0.88	-0.61	3.29	5.45	5.24	4.16	5.80	
187	H	B	0.88	-0.74	3.16	5.17	4.86	4.24	5.57	
188	H	B	0.88	-0.67	3.00	4.93	4.92	3.92	5.56	
189	H	E	0.88	-0.73	3.15	5.17	5.14	3.95	5.74	
190	H	B	0.88	-0.77	3.14	5.13	4.91	4.01	5.60	
191	H	B	0.88	-1.01	2.99	4.83	4.64	3.89	5.46	
192	H	B	0.88	-0.92	3.02	4.87	4.83	3.85	5.65	
193	H	E	0.88	-0.78	3.19	5.18	5.05	3.98	5.76	
194	H	B	0.88	-0.98	3.15	5.09	4.83	3.99	5.57	
195	H	B	0.88	-0.97	3.11	4.99	4.68	3.94	5.61	
196	H	B	0.88	-0.71	3.16	5.19	4.94	3.97	5.84	
197	H	B	0.88	-0.66	3.34	5.46	5.17	4.11	5.81	
198	H	B	0.88	-0.79	3.45	5.57	5.04	4.24	5.79	
199	H	B	0.88	-0.92	3.42	5.63	5.10	4.20	5.93	
200	H	B	0.88	-0.87	3.53	5.92	5.40	4.34	6.08	
201	H	B	0.88	-0.79	3.68	6.06	5.52	4.39	6.00	
202	H	B	0.87	-0.72	3.74	6.17	5.42	4.53	6.09	
203	H	B	0.87	-0.55	3.82	6.28	5.79	4.49	6.26	
204	H	B	0.85	-0.28	5.69	7.93	7.86	6.42	7.02	
205	H	B	0.70	-0.06	5.58	8.18	7.24	6.47	7.41	
206	C	B	0.72	-0.11	5.58	6.65	6.73	6.95	6.93	
207	C	E	0.69	0.19	5.62	7.51	6.96	6.60	7.52	
208	C	B	0.78	0.25	6.36	8.49	7.65	7.08	7.89	
209	C	E	0.82	0.48	7.38	9.52	8.03	7.92	8.43	
210	C	B	0.85	0.39	5.59	8.21	6.47	6.31	7.53	
211	C	E	0.82	0.23	4.35	7.40	5.77	4.95	6.79	
212	C	B	0.78	-0.07	4.48	7.17	5.83	5.14	6.53	
213	H	B	0.76	-0.36	4.44	6.69	5.73	4.99	6.27	
214	H	B	0.83	-0.64	3.89	6.05	5.15	4.47	5.83	
215	H	B	0.83	-0.61	3.88	6.21	5.50	4.40	5.76	
216	H	B	0.85	-0.58	3.91	6.24	5.60	4.53	5.81	
217	H	B	0.85	-0.70	3.57	5.78	5.12	4.27	5.71	
218	H	B	0.85	-0.74	3.64	5.74	5.12	4.30	5.58	
219	H	B	0.85	-0.70	3.92	6.07	5.51	4.52	5.64	
220	H	B	0.85	-0.65	3.82	5.97	5.42	4.56	5.71	
221	H	B	0.85	-0.64	3.80	5.77	5.25	4.52	5.58	
222	H	B	0.85	-0.60	3.77	5.86	5.35	4.52	5.40	
223	H	E	0.85	-0.65	3.74	5.98	5.47	4.53	5.51	
224	H	B	0.86	-0.74	3.53	5.64	5.15	4.42	5.43	
225	H	B	0.86	-0.71	3.57	5.58	5.06	4.47	5.27	
226	H	B	0.86	-0.59	3.66	5.88	5.40	4.57	5.31	
227	H	E	0.86	-0.58	3.64	5.89	5.43	4.55	5.44	
228	H	B	0.86	-0.76	3.51	5.57	5.09	4.47	5.34	
229	H	B	0.85	-0.76	3.64	5.72	5.22	4.62	5.32	
230	H	B	0.84	-0.63	3.74	6.08	5.59	4.75	5.49	
231	H	B	0.84	-0.57	3.67	6.02	5.48	4.66	5.57	
232	H	B	0.82	-0.63	3.43	5.79	5.14	4.57	5.44	
233	H	B	0.84	-0.57	3.65	6.14	5.33	4.83	5.56	
234	H	B	0.84	-0.40	3.65	6.31	5.55	4.77	5.73	
235	C	B	0.83	-0.58	3.39	6.15	5.35	4.62	5.75	
236	C	B	0.83	-0.36	3.23	6.19	5.24	4.63	5.80	
237	C	B	0.83	-0.41	3.13	6.05	4.94	4.57	5.66	
238	C	B	0.82	-0.60	3.11	6.08	5.01	4.46	5.71	
239	C	B	0.77	-0.61	3.38	6.58	5.48	4.63	6.07	
240	H	B	0.77	-0.55	3.34	6.50	5.41	4.46	5.90	
241	H	B	0.76	-0.68	3.27	6.28	5.11	4.54	5.74	
242	H	B	0.77	-0.38	3.37	6.52	5.27	4.70	5.89	
243	H	B	0.77	-0.23	3.49	6.90	5.44	4.67	6.11	
244	H	E	0.78	0.05	3.57	6.76	5.77	4.69	6.06	
245	C	E	0.77	0.18	3.71	6.67	5.74	4.99	6.03	
246	C	E	0.77	0.37	3.56	7.09	5.87	4.96	6.23	
247	C	E	0.78	0.36	3.56	7.10	5.63	4.95	6.33	
248	H	E	0.76	0.57	3.53	7.17	5.68	4.83	6.29	
249	H	E	0.76	0.58	3.72	7.23	5.92	5.07	6.36	
250	H	E	0.75	0.16	3.40	6.95	5.53	4.90	6.18	
251	H	B	0.74	-0.12	3.40	6.90	5.60	4.73	6.17	
252	H	B	0.75	0.10	3.60	7.29	5.99	4.75	6.41	
253	H	E	0.74	0.04	3.65	7.27	6.10	4.90	6.43	
254	H	B	0.73	-0.16	3.47	6.93	5.78	4.72	6.25	
255	H	B	0.72	-0.27	3.63	7.10	6.08	4.65	6.39	
256	H	B	0.72	0.05	3.99	7.55	6.56	4.85	6.68	
257	H	E	0.72	0.10	4.00	7.41	6.48	4.89	6.68	
258	H	B	0.72	0.10	4.48	7.57	6.67	5.07	6.88	
259	H	B	0.73	0.54	4.67	7.76	7.18	5.25	7.12	
260	C	E	0.67	1.29	5.22	8.31	8.29	5.91	7.75	
261	C	B	0.55	0.38	5.99	8.82	8.73	6.75	8.17	
262	C	E	0.55	1.48	6.52	8.73	8.34	6.89	8.15	
263	C	E	0.49	1.57	7.48	9.70	9.73	7.86	8.01	
264	C	E	0.27	1.33	7.67	9.99	10.82	8.21	9.38	
265	C	B	0.32	1.34	6.98	9.39	10.82	7.58	9.31	
266	H	E	0.28	1.12	7.54	9.07	11.15	7.85	9.32	
267	H	E	0.31	0.73	8.27	8.79	10.06	8.55	8.96	
268	H	B	0.67	0.37	7.06	7.95	9.01	7.68	8.15	
269	H	E	0.68	0.30	5.93	8.22	9.13	6.70	8.40	
270	H	E	0.72	0.39	5.44	7.64	8.68	6.02	7.94	
271	H	B	0.72	0.05	5.56	7.49	8.52	6.17	7.75	
272	H	B	0.72	-0.28	5.56	7.77	8.66	6.26	7.96	
273	H	E	0.72	0.22	5.45	7.79	8.61	6.00	7.98	
274	H	E	0.72	0.20	5.27	7.45	8.40	5.82	7.71	
275	H	B	0.72	-0.31	5.36	7.53	8.34	6.03	7.69	
276	H	E	0.72	-0.10	5.61	7.92	8.59	6.22	7.99	
277	H	E	0.72	0.17	5.42	7.72	8.49	5.92	7.87	
278	H	B	0.73	-0.11	5.16	7.47	8.02	5.72	7.56	
279	H	B	0.74	-0.28	5.59	8.00	8.33	6.25	7.86	
280	H	E	0.75	-0.03	6.24	8.66	9.13	6.83	8.48	
281	H	E	0.75	0.11	5.62	8.08	8.40	6.16	7.95	
282	H	B	0.76	0.02	5.75	8.23	8.09	6.39	8.17	
283	H	E	0.72	0.26	6.63	8.98	9.17	7.46	8.78	
284	H	E	0.72	0.68	6.07	8.81	8.79	6.52	8.75	
285	C	E	0.70	0.50	5.36	8.76	7.73	5.63	8.69	
286	C	E	0.68	0.46	5.16	10.02	6.71	6.01	8.63	
287	C	E	0.68	0.65	4.43	10.07	6.58	5.32	7.29	
288	C	E	0.70	0.19	4.77	7.87	6.67	5.49	7.32	
289	C	B	0.69	-0.14	5.81	8.15	6.51	6.15	7.91	
290	H	B	0.71	-0.34	7.07	8.99	6.79	7.08	9.42	
291	H	B	0.70	-0.17	6.07	8.04	7.17	6.40	9.02	
292	H	E	0.71	-0.09	4.71	6.73	7.05	5.43	6.99	
293	H	B	0.70	-0.24	6.03	8.13	7.11	6.16	7.75	
294	H	B	0.69	-0.19	5.51	7.60	7.73	5.73	7.47	
295	C	E	0.68	0.14	5.79	7.67	7.76	6.27	7.30	
296	C	E	0.41	0.25	6.65	9.42	8.36	7.31	8.84	
297	C	E	0.53	0.13	5.64	9.60	8.07	6.71	9.04	
298	C	E	0.75	0.19	4.85	8.32	7.33	5.67	7.56	
299	C	E	0.76	-0.05	4.54	8.62	7.00	5.29	9.03	
300	H	B	0.77	-0.43	4.32	7.88	6.74	4.90	9.43	
301	H	B	0.78	-0.39	4.50	7.54	6.64	5.10	8.56	
302	H	B	0.80	-0.67	4.20	7.04	6.65	4.83	7.85	
303	H	B	0.85	-0.95	3.82	6.67	6.24	4.47	7.81	
304	H	B	0.85	-0.85	5.01	7.50	5.84	5.80	6.71	
305	H	B	0.85	-0.88	4.25	6.69	6.40	4.70	5.62	
306	H	B	0.85	-0.98	4.05	6.58	6.30	4.45	5.66	
307	H	B	0.85	-0.92	3.72	6.12	5.79	4.26	5.44	
308	H	B	0.85	-0.94	3.86	6.11	5.81	4.40	5.38	
309	H	B	0.85	-0.90	4.03	6.35	6.13	4.46	5.56	
310	H	B	0.85	-0.90	3.81	6.06	5.94	4.29	5.54	
311	H	B	0.84	-1.01	3.61	5.67	5.51	4.21	5.35	
312	H	E	0.83	-0.97	3.97	5.96	5.88	4.49	5.53	
313	H	B	0.83	-0.99	4.08	6.17	6.12	4.44	5.78	
314	H	B	0.82	-1.05	3.65	5.62	5.62	4.19	5.55	
315	H	B	0.83	-0.98	3.54	5.51	5.30	4.09	5.47	
316	H	E	0.82	-0.87	3.88	5.98	5.79	4.35	5.68	
317	H	B	0.82	-0.86	3.98	6.06	6.01	4.39	5.85	
318	C	B	0.77	-0.80	4.25	6.02	6.09	4.96	6.16	
319	C	B	0.78	-0.80	3.82	5.39	5.65	4.64	5.88	
320	S	B	0.79	-0.88	4.03	5.45	5.55	4.98	5.89	
321	S	B	0.78	-0.97	4.52	6.09	6.01	5.45	6.37	
322	S	B	0.80	-0.87	4.22	5.88	5.81	5.18	6.31	
323	H	B	0.83	-0.53	4.24	5.77	5.76	5.26	6.16	
324	H	B	0.84	-0.74	5.33	7.00	6.60	6.39	6.89	
325	H	B	0.84	-0.67	5.70	7.41	6.88	6.74	7.33	
326	H	B	0.85	-0.47	4.17	5.82	5.61	5.16	6.47	
327	H	B	0.85	-0.45	4.64	6.46	6.07	5.71	6.70	
328	H	B	0.85	-0.37	6.25	8.16	7.28	7.36	7.82	
329	H	B	0.84	-0.51	6.11	7.85	7.08	7.18	7.87	
330	H	B	0.84	-0.42	4.95	6.73	6.10	6.07	7.21	
331	H	B	0.83	-0.21	5.55	7.63	6.61	6.71	7.64	
332	H	B	0.83	-0.09	6.92	8.69	7.71	8.09	8.52	
333	C	B	0.82	0.10	7.17	8.74	7.92	8.19	8.80	
334	C	B	0.79	-0.24	5.56	7.13	6.75	6.87	7.89	
335	C	B	0.75	-0.09	6.81	8.11	7.36	8.37	8.92	
336	C	E	0.75	0.51	4.47	6.89	6.28	6.24	7.57	
337	H	B	0.76	0.19	4.59	6.92	6.56	5.48	7.25	
338	H	B	0.78	-0.45	3.51	6.14	5.58	4.78	6.57	
339	H	B	0.82	-0.35	3.84	6.31	5.79	4.86	6.51	
340	H	B	0.83	-0.40	4.18	6.29	5.83	4.75	6.62	
341	H	B	0.84	-0.52	3.65	5.74	5.35	4.30	6.47	
342	H	B	0.85	-0.77	3.38	5.59	5.18	4.21	6.22	
343	H	B	0.85	-0.81	3.79	5.92	5.77	4.44	6.35	
344	H	B	0.85	-0.79	3.96	5.92	5.97	4.42	6.45	
345	H	B	0.85	-0.79	3.42	5.42	5.52	4.09	6.24	
346	H	B	0.85	-0.77	3.33	5.38	5.37	4.05	6.13	
347	H	B	0.85	-0.69	3.71	5.73	5.85	4.27	6.32	
348	H	B	0.85	-0.76	3.66	5.64	5.94	4.22	6.31	
349	H	B	0.85	-0.81	3.37	5.33	5.57	4.02	6.09	
350	H	B	0.85	-0.80	3.47	5.48	5.68	4.11	6.11	
351	H	B	0.85	-0.57	3.80	5.83	6.15	4.29	6.32	
352	H	B	0.85	-0.68	3.72	5.77	6.12	4.19	6.24	
353	H	B	0.85	-0.78	3.46	5.54	5.76	4.04	6.04	
354	H	E	0.85	-0.65	3.69	5.87	6.08	4.20	6.23	
355	H	B	0.85	-0.52	3.83	6.08	6.43	4.26	6.37	
356	H	B	0.85	-0.55	3.53	5.86	6.14	4.07	6.17	
357	H	B	0.85	-0.55	3.45	5.85	6.00	4.10	6.15	
358	H	B	0.85	-0.35	3.75	6.28	6.47	4.25	6.41	
359	H	E	0.85	-0.38	3.76	6.34	6.60	4.22	6.41	
360	H	B	0.84	-0.50	3.58	6.20	6.32	4.08	6.22	
361	H	B	0.84	-0.19	3.64	6.43	6.48	4.11	6.29	
362	C	B	0.83	-0.09	3.98	6.78	6.94	4.49	6.73	
363	C	E	0.85	0.02	4.00	6.76	6.90	4.47	6.67	
364	C	E	0.85	-0.10	3.84	6.68	6.65	4.24	6.39	
365	C	B	0.85	-0.34	3.77	6.48	6.37	4.20	6.23	
366	H	B	0.83	-0.47	3.84	6.68	6.53	4.20	6.18	
367	H	E	0.82	-0.29	3.98	6.80	6.79	4.29	6.35	
368	H	B	0.81	-0.53	3.78	6.36	6.51	4.17	6.22	
369	H	B	0.81	-0.74	3.73	6.26	6.32	4.11	6.04	
370	H	B	0.82	-0.71	3.96	6.62	6.68	4.26	6.16	
371	H	B	0.84	-0.69	4.01	6.56	6.76	4.29	6.27	
372	H	B	0.85	-0.77	3.67	6.07	6.29	4.12	6.08	
373	H	B	0.85	-0.75	3.76	6.21	6.34	4.21	6.00	
374	H	B	0.85	-0.83	4.11	6.60	6.77	4.41	6.21	
375	H	B	0.85	-0.89	3.97	6.30	6.63	4.39	6.23	
376	H	B	0.85	-0.91	3.80	6.02	6.28	4.31	6.06	
377	H	B	0.85	-0.88	4.12	6.41	6.61	4.54	6.14	
378	H	B	0.85	-0.79	4.28	6.56	6.83	4.67	6.35	
379	H	B	0.85	-0.93	3.97	6.18	6.44	4.53	6.27	
380	H	B	0.85	-0.98	3.99	6.24	6.31	4.53	6.19	
381	H	B	0.85	-0.88	4.30	6.63	6.73	4.78	6.34	
382	H	B	0.85	-0.87	4.27	6.55	6.69	4.77	6.48	
383	H	B	0.84	-0.91	3.99	6.30	6.26	4.62	6.38	
384	H	B	0.83	-0.76	4.33	6.58	6.54	4.98	6.45	
385	H	B	0.82	-0.67	4.73	6.94	6.92	5.23	6.75	
386	H	B	0.82	-0.72	4.52	6.71	6.60	5.06	6.78	
387	H	B	0.74	-0.56	4.57	6.74	6.44	5.13	6.83	
388	H	B	0.72	-0.35	4.98	7.18	6.83	5.47	7.08	
389	H	B	0.63	-0.25	5.49	7.60	7.30	5.95	7.87	
390	C	B	0.48	0.12	7.30	8.31	7.56	7.25	9.68	
391	C	B	0.26	0.46	7.79	10.11	8.00	7.61	10.64	
392	C	E	0.21	0.43	7.90	11.82	9.53	8.63	11.54	
393	C	E	0.12	0.56	8.99	14.16	11.52	9.93	12.66	
394	C	E	0.11	0.70	8.87	15.50	13.00	10.42	13.39	
395	C	E	0.11	0.73	8.41	15.03	12.60	9.77	12.79	
396	C	E	0.07	0.95	8.48	15.25	12.69	9.10	12.76	
397	C	E	0.07	1.01	9.26	15.81	13.56	9.68	14.22	
398	C	E	0.08	0.65	9.35	15.50	13.25	10.02	15.61	
399	C	E	0.07	0.55	9.15	14.09	12.12	10.22	15.84	
400	C	E	0.12	0.61	8.20	12.25	11.02	9.57	15.07	
401	C	E	0.19	0.67	7.38	10.32	9.85	8.65	13.88	
402	C	E	0.35	0.88	6.30	8.56	8.59	7.40	11.36	
403	C	E	0.38	0.52	6.41	8.67	8.59	7.03	9.48	
404	C	E	0.46	0.16	6.84	8.07	8.91	7.14	9.38	
405	C	E	0.55	0.25	8.13	8.72	8.83	7.90	9.50	
406	H	B	0.62	0.11	7.32	8.21	8.81	7.30	7.43	
407	H	B	0.68	-0.31	4.77	7.56	7.35	5.80	6.93	
408	H	B	0.77	-0.37	4.39	6.54	6.31	5.28	6.92	
409	H	B	0.78	-0.20	4.35	6.52	6.39	5.10	6.77	
410	H	B	0.84	-0.45	4.65	6.54	6.70	5.23	7.05	
411	H	B	0.85	-0.54	4.29	6.19	6.25	4.90	6.63	
412	H	B	0.85	-0.70	3.92	5.93	5.99	4.57	6.54	
413	H	B	0.84	-0.77	4.03	6.06	6.33	4.60	6.59	
414	H	B	0.85	-0.77	4.00	6.06	6.26	4.48	6.42	
415	H	B	0.85	-0.83	3.91	5.75	5.96	4.40	6.24	
416	H	B	0.85	-0.96	3.88	5.70	6.03	4.36	6.34	
417	H	B	0.85	-0.93	4.00	5.94	6.33	4.39	6.37	
418	H	B	0.85	-0.96	3.76	5.74	6.05	4.23	6.12	
419	H	B	0.84	-0.90	3.54	5.42	5.74	4.07	6.05	
420	H	B	0.84	-0.84	3.67	5.66	6.06	4.16	6.20	
421	H	B	0.84	-0.79	3.68	5.81	6.18	4.16	6.12	
422	H	B	0.84	-0.91	3.38	5.48	5.75	4.02	5.91	
423	H	B	0.84	-0.81	3.29	5.43	5.62	4.04	5.96	
424	H	B	0.82	-0.65	3.50	5.79	6.09	4.30	6.16	
425	H	B	0.83	-0.73	3.47	5.90	5.99	4.14	6.02	
426	H	B	0.84	-0.75	3.39	5.54	5.77	4.20	5.80	
427	C	B	0.83	-0.72	3.34	5.32	5.50	4.20	5.82	
428	C	B	0.83	-0.58	3.29	5.34	5.42	4.13	5.84	
429	H	B	0.84	-0.57	3.48	5.62	5.45	4.23	5.79	
430	H	B	0.83	-0.61	3.57	5.55	5.19	4.25	5.62	
431	H	B	0.83	-0.62	3.44	5.32	4.95	4.14	5.49	
432	S	B	0.82	-0.16	3.67	5.73	5.09	4.37	5.74	
433	S	B	0.83	-0.61	3.28	5.77	5.27	3.89	5.53	
434	S	B	0.83	-0.65	3.37	5.75	5.07	4.25	5.54	
435	C	B	0.83	-0.15	3.67	5.99	5.07	4.60	5.89	
436	C	B	0.83	-0.16	3.45	6.10	5.51	4.30	5.77	
437	C	B	0.82	-0.43	3.56	6.30	5.60	4.32	5.75	
438	C	B	0.83	-0.43	3.62	6.38	5.62	4.36	5.71	
439	C	B	0.84	-0.34	3.73	6.75	5.76	4.32	5.90	
440	H	B	0.85	-0.29	3.54	6.35	4.93	4.43	5.78	
441	H	E	0.84	-0.31	3.69	6.42	5.00	4.72	5.69	
442	H	B	0.85	-0.54	3.66	6.24	5.33	4.69	5.44	
443	H	B	0.85	-0.73	3.35	5.90	4.99	4.33	5.36	
444	H	B	0.85	-0.67	3.33	5.62	4.70	4.39	5.16	
445	H	B	0.85	-0.61	3.61	5.84	5.13	4.57	5.13	
446	H	B	0.85	-0.75	3.58	5.94	5.31	4.38	5.23	
447	H	B	0.85	-0.97	3.42	5.55	4.81	4.20	5.14	
448	H	B	0.85	-0.94	3.46	5.43	4.76	4.34	4.97	
449	H	B	0.85	-0.91	3.68	5.77	5.26	4.43	5.06	
450	H	B	0.85	-0.92	3.55	5.68	5.22	4.21	5.15	
451	H	B	0.85	-1.01	3.39	5.26	4.72	4.10	5.02	
452	H	B	0.85	-0.88	3.57	5.38	4.94	4.29	4.94	
453	H	B	0.84	-1.01	3.75	5.70	5.35	4.36	5.16	
454	H	B	0.85	-1.14	3.54	5.38	5.03	4.14	5.16	
455	H	B	0.84	-1.05	3.50	5.17	4.72	4.12	5.08	
456	H	E	0.85	-0.90	3.71	5.53	5.10	4.30	5.12	
457	H	B	0.85	-0.97	3.69	5.64	5.25	4.25	5.27	
458	H	B	0.85	-0.99	3.54	5.30	4.93	4.13	5.28	
459	H	B	0.85	-0.99	3.69	5.42	4.95	4.24	5.26	
460	H	B	0.85	-0.89	3.81	5.79	5.28	4.33	5.35	
461	H	B	0.85	-0.96	3.69	5.74	5.27	4.23	5.49	
462	H	B	0.85	-0.92	3.60	5.54	4.98	4.18	5.51	
463	H	B	0.85	-0.83	4.05	6.06	5.53	4.67	5.76	
464	H	B	0.85	-0.78	5.43	7.04	6.75	6.14	6.68	
465	H	B	0.85	-0.80	5.59	6.88	6.69	6.26	6.74	
466	H	B	0.85	-0.60	5.20	6.61	6.25	5.93	6.53	
467	H	B	0.85	-0.47	6.13	7.81	6.12	6.37	7.30	
468	H	B	0.85	-0.52	7.49	9.11	6.60	7.26	8.30	
469	H	B	0.84	-0.25	7.79	9.49	6.53	7.60	8.33	
470	H	B	0.85	0.08	6.26	8.43	6.21	6.51	7.48	
471	H	E	0.85	0.11	6.15	9.30	6.37	6.29	6.94	
472	C	E	0.85	-0.09	5.98	8.81	6.56	6.16	6.74	
473	C	E	0.85	-0.06	4.84	7.39	6.18	5.29	6.58	
474	C	B	0.85	-0.45	4.65	7.29	6.23	5.18	6.41	
475	C	B	0.85	-0.36	4.57	7.16	6.65	5.14	6.46	
476	C	B	0.85	-0.66	4.21	6.45	6.13	4.81	6.06	
477	C	B	0.85	-0.87	3.77	6.14	5.94	4.36	5.90	
478	H	B	0.85	-0.91	3.96	6.62	6.39	4.60	6.05	
479	H	B	0.85	-0.89	4.04	6.63	6.36	4.63	5.98	
480	H	B	0.85	-0.99	3.94	6.27	6.16	4.54	5.92	
481	H	B	0.85	-0.84	4.02	6.52	6.48	4.71	6.08	
482	H	B	0.85	-0.84	4.04	6.78	6.60	4.72	6.02	
483	H	B	0.85	-0.98	3.91	6.47	6.31	4.50	5.83	
484	H	B	0.85	-0.93	3.79	6.35	6.30	4.40	5.90	
485	H	B	0.85	-0.91	4.05	6.80	6.74	4.57	6.05	
486	H	E	0.85	-0.79	4.09	6.85	6.68	4.61	5.95	
487	H	B	0.85	-0.78	3.85	6.49	6.35	4.43	5.84	
488	H	B	0.85	-0.82	3.96	6.67	6.66	4.47	6.02	
489	H	B	0.85	-0.73	4.21	7.11	6.97	4.58	6.08	
490	H	B	0.84	-0.79	4.09	6.91	6.70	4.49	5.93	
491	H	B	0.83	-0.79	3.88	6.65	6.52	4.29	5.88	
492	H	B	0.83	-0.28	4.10	7.02	6.90	4.31	6.01	
493	S	B	0.82	-0.55	4.27	7.33	7.03	4.37	6.03	
494	S	B	0.82	-0.65	3.98	6.99	6.61	4.26	5.82	
495	S	B	0.82	-0.81	3.83	6.75	6.41	4.20	5.87	
496	C	B	0.82	-0.42	3.89	6.97	6.48	4.27	6.10	
497	C	B	0.81	-0.12	3.87	6.93	6.55	4.28	6.25	
498	C	B	0.78	-0.24	3.81	6.82	6.33	4.35	6.27	
499	C	E	0.62	0.08	4.19	7.18	6.86	4.74	6.80	
500	C	E	0.62	0.14	4.24	7.35	6.86	4.86	6.92	
501	C	B	0.50	-0.08	4.38	7.53	6.90	5.15	7.02	
502	C	E	0.50	-0.20	4.41	7.33	6.53	5.47	6.88	
503	H	B	0.49	-0.41	4.32	7.08	6.23	5.44	6.61	
504	H	E	0.47	-0.40	4.59	7.44	6.54	5.74	6.78	
505	H	B	0.47	-0.27	4.68	7.65	6.87	5.75	6.93	
506	H	B	0.47	-0.49	4.52	7.44	6.73	5.49	6.75	
507	H	B	0.47	-0.42	4.59	7.55	6.62	5.57	6.69	
508	H	E	0.47	-0.03	4.73	8.02	6.91	5.49	6.95	
509	H	B	0.46	-0.23	4.94	8.13	7.40	5.43	7.01	
510	H	B	0.45	-0.16	4.89	8.02	7.36	5.40	6.76	
511	H	E	0.44	0.52	5.02	8.28	7.22	5.55	7.00	
512	C	E	0.35	0.84	5.45	8.95	7.95	6.00	7.69	
513	C	E	0.28	0.80	5.59	9.06	8.18	5.96	7.63	
514	C	B	0.28	0.63	5.87	9.10	8.29	6.18	7.53	
515	C	E	0.12	0.31	6.54	9.71	9.67	6.90	8.71	
516	C	B	0.10	0.50	7.11	9.84	11.00	7.87	9.59	
517	C	B	0.04	0.87	7.83	10.32	12.45	9.31	11.23	
518	C	E	0.03	0.95	10.08	12.37	15.06	11.43	13.39	
519	C	B	0.03	0.92	11.69	14.09	15.86	12.81	15.11	
520	C	E	0.03	0.91	12.50	14.92	15.05	13.94	15.50	
521	C	E	0.03	0.81	12.91	15.39	14.01	15.17	16.01	
522	C	B	0.03	0.60	12.52	14.74	12.05	15.83	14.92	
523	C	E	0.04	0.40	13.91	16.28	12.05	17.88	15.65	
524	C	B	0.04	0.30	15.48	17.83	12.81	19.33	15.99	
525	C	E	0.03	0.28	16.91	19.06	13.68	20.24	15.67	
526	C	E	0.05	0.15	17.24	19.20	13.47	20.63	15.29	
527	H	E	0.05	0.08	15.81	19.66	14.11	19.17	15.08	
528	H	E	0.05	0.11	16.64	20.84	14.41	18.84	14.87	
529	H	E	0.05	0.19	17.99	20.40	14.80	19.47	15.13	
530	H	E	0.05	0.27	17.43	19.92	15.95	18.65	15.79	
531	H	E	0.05	0.41	17.38	21.39	16.99	17.62	16.79	
532	H	E	0.05	0.53	19.44	22.35	17.62	18.38	16.34	
533	H	E	0.05	0.60	20.48	21.82	18.95	18.78	16.12	
534	H	E	0.05	0.75	20.27	22.56	20.51	17.71	17.47	
535	H	E	0.05	0.78	21.40	24.36	21.26	17.53	18.54	
536	H	E	0.05	0.31	23.24	25.07	22.10	18.83	18.36	
537	C	E	0.05	0.43	24.22	25.37	23.80	18.94	19.25	
538	C	E	0.05	0.31	24.53	26.58	25.35	18.15	21.05	
539	C	E	0.05	0.32	25.83	28.02	26.30	18.53	21.64	
540	C	E	0.04	0.35	27.61	28.97	27.50	19.65	22.00	
541	C	E	0.04	0.39	28.42	29.83	28.32	20.04	23.52	
542	C	E	0.03	0.26	28.83	30.99	28.83	20.38	24.49	
543	C	E	0.03	0.45	30.19	32.40	29.97	21.13	24.86	
544	C	E	0.03	0.59	31.64	33.27	31.20	22.07	26.20	
545	C	E	0.05	0.88	32.30	34.03	31.79	23.02	27.80	
546	C	E	0.05	1.30	33.14	35.41	32.72	23.97	28.79	
547	C	E	0.05	2.03	34.02	36.48	33.75	24.92	29.43	


RES:   Residue number
SS:    Predicted secondary structure: C - random coil; H - alpha-helix; S - beta-strand
SA:    Predicted solvent accessibility at 25% cutoff: E - exposed; B - buried
COV:   Threading alignment coverage defined as the number of threading alignments on the residue divided 
       by the number of total threading programs
BFP:   Predicted normalized B-factor 
RSQ_*: Residue-Specific Quality of models defined as the estimated deviation of the residue on the model
       from the native structure of the protein


You are requested to cite the following article when you use the ResQ prediction results:

     J Yang, Y Wang, Y Zhang. ResQ: An approach to unified estimation of B-factor and residue-specific 
     error in protein structure prediction, Journal of Molecular Biology, 428: 693-701 (2016).

